Design Route Status
                                               :      # nets :
   ------------------------------------------- : ----------- :
   # of logical nets.......................... :       14249 :
       # of nets not needing routing.......... :        6364 :
           # of internally routed nets........ :        6316 :
           # of nets with no loads............ :          48 :
       # of routable nets..................... :        7885 :
           # of fully routed nets............. :        7885 :
       # of nets with routing errors.......... :           0 :
   ------------------------------------------- : ----------- :

